[
    {
        "name": "Bart Simpson",
        "title": "CEO",
        "age": 44,
        "office": "Lobby"
    },
    {
        "name": "Lisa Simpson",
        "title": "CTO",
        "age": 33,
        "office": "Lobby"
    }
]